[
	{
		"operand1": -4,
		"operator": "+",
		"operand2": -4,
		"answer": -8,
		"animation": "soal1.mp4"
	},
	{
		"operand1": 8,
		"operator": "+",
		"operand2": -4,
		"answer": 4,
		"animation": "soal2.mp4"
	},
	{
		"operand1": -6,
		"operator": "+",
		"operand2": 2,
		"answer": -4,
		"animation": "soal1.mp4"
	},
	{
		"operand1": -7,
		"operator": "-",
		"operand2": -2,
		"answer": -5,
		"animation": "soal2.mp4"
	},
	{
		"operand1": 5,
		"operator": "-",
		"operand2": -5,
		"answer": 10,
		"animation": "soal1.mp4"
	},
	{
		"operand1": -3,
		"operator": "-",
		"operand2": 6,
		"answer": -9,
		"animation": "soal2.mp4"
	}
]